common/powerup_reset_test/out.vcd
$date
	Thu Nov  7 00:24:54 2024
$end
$version
	Icarus Verilog
$end
$timescale
	1ns
$end
$scope module testbench $end
$var wire 1 ! rst $end
$var parameter 32 " TEST_DURATION $end
$var reg 1 # clk50M $end
$var reg 1 $ key0 $end
$scope module res_gen $end
$var wire 1 # clk $end
$var wire 1 $ key $end
$var parameter 4 % TICK $end
$var reg 1 ! rst $end
$var reg 4 & tick_timer [3:0] $end
$upscope $end
$upscope $end
$enddefinitions $end
$comment Show the parameter values. $end
$dumpall
b1111 %
b11110100001001000000 "
$end
#0
$dumpvars
b1111 &
0$
0#
1!
$end
#10000
b1110 &
1#
#20000
0#
#30000
b1101 &
1#
#40000
0#
#50000
b1100 &
1#
#60000
0#
#70000
b1011 &
1#
#80000
0#
#90000
b1010 &
1#
#100000
0#
#110000
b1001 &
1#
#120000
0#
#130000
b1000 &
1#
#140000
0#
#150000
b111 &
1#
#160000
0#
#170000
b110 &
1#
#180000
0#
#190000
b101 &
1#
#200000
0#
#210000
b100 &
1#
#220000
0#
#230000
b11 &
1#
#240000
0#
#250000
b10 &
1#
#260000
0#
#270000
b1 &
1#
#280000
0#
#290000
b0 &
1#
#300000
0#
#310000
0!
1#
